https://api.flickr.com/services/rest/?method=flickr.photos.search&api_key={APIKEY}&tags={TAG}&format=json&nojsoncallback={callback}":
https://farm{farm}.staticflickr.com/{server}/{id}_{secret}.jpg


https://api.flickr.com/services/rest/?method=flickr.photos.search&api_key=3fc0fbd09a48fab817d92fb48846445c&tags=jerusalem&format=json&nojsoncallback=foo

https://farm9.staticflickr.com/8187/8432423659_dd1b834ec5.jpg


{"photos":{"page":1,"pages":5240,"perpage":100,"total":523928,"photo":[{"id":"51628954755","owner":"9905418@N05","secret":"8891901d16","server":"65535","farm":66,"title":"IL Jerusalem Church of Dormition (W63-A09-02)","ispublic":1,"isfriend":0,"isfamily":0},{"id":"51627273367","owner":"9905418@N05","secret":"3b5663d02f","server":"65535","farm":66,"title":"IL Jerusalem Judean mountains and reforestation (W63-A09-07)","ispublic":1,"isfriend":0,"isfamily":0},{"id":"51628750039","owner":"9905418@N05","secret":"5593f5d438","server":"65535","farm":66,"title":"IL Jerusalem Mt Zion (W63-A09-01)","ispublic":1,"isfriend":0,"isfamily":0},{"id":"51628099011","owner":"9905418@N05","secret":"7ed7dc6fd8","server":"65535","farm":66,"title":"IL Jerusalem view of Dome of the Rock and Mt of Olives from Mt Zion (W63-A09-03)","ispublic":1,"isfriend":0,"isfamily":0},{"id":"51628749694","owner":"9905418@N05","secret":"970848e2dc","server":"65535","farm":66,"title":"IL Jerusalem New Hebrew University (W63-A09-05)","ispublic":1,"isfriend":0,"isfamily":0},{"id":"51628696380","owner":"142603527@N02","secret":"f6501f76f7","server":"65535","farm":66,"title":"VENEZUELA enters into the CONTRACT of the ARCH","ispublic":1,"isfriend":0,"isfamily":0},{"id":"51627796933","owner":"142603527@N02","secret":"495e75cf8c","server":"65535","farm":66,"title":"COLOMBIA enters into the CONTRACT of the ARCH","ispublic":1,"isfriend":0,"isfamily":0},{"id":"51628054425","owner":"142603527@N02","secret":"4fa3e26839","server":"65535","farm":66,"title":"PERU enters into the CONTRACT of the ARCH","ispublic":1,"isfriend":0,"isfamily":0},{"id":"51625756338","owner":"162691461@N05","secret":"04f359df9c","server":"65535","farm":66,"title":"XT3","ispublic":1,"isfriend":0,"isfamily":0},{"id":"51624697217","owner":"162691461@N05","secret":"de1f170310","server":"65535","farm":66,"title":"XT3","ispublic":1,"isfriend":0,"isfamily":0},{"id":"51624689282","owner":"162691461@N05","secret":"bbf2274245","server":"65535","farm":66,"title":"XT3","ispublic":1,"isfriend":0,"isfamily":0},{"id":"51625516351","owner":"162691461@N05","secret":"3a97136a29","server":"65535","farm":66,"title":"XT3","ispublic":1,"isfriend":0,"isfamily":0},{"id":"51625736998","owner":"162691461@N05","secret":"8ae8efdceb","server":"65535","farm":66,"title":"XT3","ispublic":1,"isfriend":0,"isfamily":0},{"id":"51626368440","owner":"162691461@N05","secret":"7536416873","server":"65535","farm":66,"title":"XT3","ispublic":1,"isfriend":0,"isfamily":0},{"id":"51626152434","owner":"162691461@N05","secret":"e431b31731","server":"65535","farm":66,"title":"XT3","ispublic":1,"isfriend":0,"isfamily":0},{"id":"51625724813","owner":"162691461@N05","secret":"5be5890a47","server":"65535","farm":66,"title":"XT3","ispublic":1,"isfriend":0,"isfamily":0},{"id":"51624641977","owner":"72945489@N06","secret":"2668c848ce","server":"65535","farm":66,"title":"Jerusalem Street Scenes","ispublic":1,"isfriend":0,"isfamily":0},{"id":"51626091254","owner":"29352895@N02","secret":"5c2f60dc3a","server":"65535","farm":66,"title":"The Best Show in town","ispublic":1,"isfriend":0,"isfamily":0},{"id":"51623802622","owner":"142603527@N02","secret":"f0fd49511a","server":"65535","farm":66,"title":"CHILE enters into the CONTRACT of the ARCH","ispublic":1,"isfriend":0,"isfamily":0},{"id":"51624068455","owner":"22829128@N08","secret":"ddd29e557b","server":"65535","farm":66,"title":"Armchair Traveling - Early Morning in the Old City, Jerusalem","ispublic":1,"isfriend":0,"isfamily":0},{"id":"51623200025","owner":"72945489@N06","secret":"dba7edb071","server":"65535","farm":66,"title":"Jerusalem Street Scenes","ispublic":1,"isfriend":0,"isfamily":0},{"id":"51618871572","owner":"22829128@N08","secret":"5c4a003433","server":"65535","farm":66,"title":"Armchair Traveling - A Bar Mitzvah at the Western Wall, Old City of Jerusalem","ispublic":1,"isfriend":0,"isfamily":0},{"id":"51618664096","owner":"72945489@N06","secret":"3ec5e9d67d","server":"65535","farm":66,"title":"Jerusalem Street Scenes","ispublic":1,"isfriend":0,"isfamily":0},{"id":"51618487871","owner":"38409976@N03","secret":"e8eb1a5dcf","server":"65535","farm":66,"title":"Acts 01 - Matthias replaces Judas - Scene 01 - Apostles return to Jerusalem (Version 02)","ispublic":1,"isfriend":0,"isfamily":0},{"id":"51618483046","owner":"38409976@N03","secret":"a10d489a3e","server":"65535","farm":66,"title":"Acts 01 - Matthias replaces Judas - Scene 01 - Apostles return to Jerusalem (Version 01)","ispublic":1,"isfriend":0,"isfamily":0},{"id":"51618551709","owner":"160463715@N05","secret":"1836c622c8","server":"65535","farm":66,"title":"Chords bridge, Jerusalem","ispublic":1,"isfriend":0,"isfamily":0},{"id":"51613043441","owner":"78953046@N02","secret":"0a08b284d9","server":"65535","farm":66,"title":"What's in the bag?","ispublic":1,"isfriend":0,"isfamily":0},{"id":"51613042436","owner":"78953046@N02","secret":"991b572199","server":"65535","farm":66,"title":"Long way up","ispublic":1,"isfriend":0,"isfamily":0},{"id":"51613265083","owner":"78953046@N02","secret":"2d0171ea2d","server":"65535","farm":66,"title":"Smoke break","ispublic":1,"isfriend":0,"isfamily":0},{"id":"51612213227","owner":"78953046@N02","secret":"244fd4956c","server":"65535","farm":66,"title":"Balancing act","ispublic":1,"isfriend":0,"isfamily":0},{"id":"51612770675","owner":"129967944@N07","secret":"73331d9015","server":"65535","farm":66,"title":"P1020806","ispublic":1,"isfriend":0,"isfamily":0},{"id":"51611886986","owner":"129967944@N07","secret":"01e189d585","server":"65535","farm":66,"title":"P1020814","ispublic":1,"isfriend":0,"isfamily":0},{"id":"51611875446","owner":"129967944@N07","secret":"709a444221","server":"65535","farm":66,"title":"DP1M0544","ispublic":1,"isfriend":0,"isfamily":0},{"id":"51612097588","owner":"129967944@N07","secret":"558265b676","server":"65535","farm":66,"title":"DP1M0562","ispublic":1,"isfriend":0,"isfamily":0},{"id":"51612097503","owner":"129967944@N07","secret":"44da7889eb","server":"65535","farm":66,"title":"DP1M0578","ispublic":1,"isfriend":0,"isfamily":0},{"id":"51610772643","owner":"192951078@N05","secret":"e2e753b382","server":"65535","farm":66,"title":"Topinambur","ispublic":1,"isfriend":0,"isfamily":0},{"id":"14817441162","owner":"126520131@N04","secret":"59c950a94c","server":"65535","farm":66,"title":"Jerusalem, Yemin Moshe-DSC_0816p","ispublic":1,"isfriend":0,"isfamily":0},{"id":"51604464407","owner":"193081956@N08","secret":"7515272d02","server":"65535","farm":66,"title":"Lent- Important Observance in the Catholic Religion","ispublic":1,"isfriend":0,"isfamily":0},{"id":"51602472215","owner":"104437599@N08","secret":"77905ed9a8","server":"65535","farm":66,"title":"Palestine Pavilion","ispublic":1,"isfriend":0,"isfamily":0},{"id":"51599408091","owner":"29352895@N02","secret":"9141bc19ee","server":"65535","farm":66,"title":"Halfway Down (A. A. Milne)","ispublic":1,"isfriend":0,"isfamily":0},{"id":"51594465192","owner":"33589304@N02","secret":"bd0f554dec","server":"65535","farm":66,"title":"1973 - Israel - Outside Jerusalem","ispublic":1,"isfriend":0,"isfamily":0},{"id":"51596173790","owner":"33589304@N02","secret":"8e20331be1","server":"65535","farm":66,"title":"1973 - Israel - Jerusalem - El Aksa Moschee - Tempelberg","ispublic":1,"isfriend":0,"isfamily":0},{"id":"51595279276","owner":"33589304@N02","secret":"6b108590b4","server":"65535","farm":66,"title":"1973 - Israel - In Jerusalem","ispublic":1,"isfriend":0,"isfamily":0},{"id":"51594464747","owner":"33589304@N02","secret":"d8e8e57beb","server":"65535","farm":66,"title":"1973 - Israel - In Jerusalem - a church","ispublic":1,"isfriend":0,"isfamily":0},{"id":"51595945514","owner":"33589304@N02","secret":"21c918a8dc","server":"65535","farm":66,"title":"1973 - Israel - In Jerusalem - Golgatha ?","ispublic":1,"isfriend":0,"isfamily":0},{"id":"51595278971","owner":"33589304@N02","secret":"221127a06b","server":"65535","farm":66,"title":"1973 - Israel - In Jerusalem","ispublic":1,"isfriend":0,"isfamily":0},{"id":"51596173395","owner":"33589304@N02","secret":"c3edecccf4","server":"65535","farm":66,"title":"1973 - Israel - In Jerusalem -","ispublic":1,"isfriend":0,"isfamily":0},{"id":"51595500913","owner":"33589304@N02","secret":"0867f6e1e4","server":"65535","farm":66,"title":"1973 - Israel - In Jerusalem","ispublic":1,"isfriend":0,"isfamily":0},{"id":"51595500848","owner":"33589304@N02","secret":"4bb05fd635","server":"65535","farm":66,"title":"1973 - Israel In Jerusalem","ispublic":1,"isfriend":0,"isfamily":0},{"id":"51595278521","owner":"33589304@N02","secret":"afcb05f5a6","server":"65535","farm":66,"title":"1973 - Israel - In Jerusalem","ispublic":1,"isfriend":0,"isfamily":0},{"id":"51595500473","owner":"33589304@N02","secret":"14a6fe709b","server":"65535","farm":66,"title":"1973 - Israel - In Jerusalem - Streetmusic","ispublic":1,"isfriend":0,"isfamily":0},{"id":"51595944559","owner":"33589304@N02","secret":"99597d2ef2","server":"65535","farm":66,"title":"1973 - In Jerusalem - 19","ispublic":1,"isfriend":0,"isfamily":0},{"id":"51596172690","owner":"33589304@N02","secret":"dfd025cefa","server":"65535","farm":66,"title":"1973 - Israel - In Jerusalem","ispublic":1,"isfriend":0,"isfamily":0},{"id":"51594463542","owner":"33589304@N02","secret":"bdb6dde4c0","server":"65535","farm":66,"title":"1973 - Israel - In Jerusalem","ispublic":1,"isfriend":0,"isfamily":0},{"id":"51595944229","owner":"33589304@N02","secret":"b1041ce1a0","server":"65535","farm":66,"title":"1973 - Israel - In Jerusalem","ispublic":1,"isfriend":0,"isfamily":0},{"id":"51595944139","owner":"33589304@N02","secret":"353ffb3921","server":"65535","farm":66,"title":"1973 - Israel - In Jerusalem","ispublic":1,"isfriend":0,"isfamily":0},{"id":"51595499873","owner":"33589304@N02","secret":"a43e9fc57c","server":"65535","farm":66,"title":"1973 - Israel - In Jerusalem - Die Klagemauer","ispublic":1,"isfriend":0,"isfamily":0},{"id":"51595277721","owner":"33589304@N02","secret":"67bde56539","server":"65535","farm":66,"title":"1973 - Israel - In Jerusalem","ispublic":1,"isfriend":0,"isfamily":0},{"id":"51596172200","owner":"33589304@N02","secret":"7b7fbc4913","server":"65535","farm":66,"title":"1973 - Israel - In Jerusalem -  An der Klagemauer","ispublic":1,"isfriend":0,"isfamily":0},{"id":"51596172145","owner":"33589304@N02","secret":"c6b683eb25","server":"65535","farm":66,"title":"1973 - Israel - In Jerusalem - 29 - An der Klagemauer","ispublic":1,"isfriend":0,"isfamily":0},{"id":"51596172025","owner":"33589304@N02","secret":"8aedc6e83c","server":"65535","farm":66,"title":"1973 - Israel - In Jerusalem - 30 - An der Klagemauer","ispublic":1,"isfriend":0,"isfamily":0},{"id":"51595277376","owner":"33589304@N02","secret":"59d5185227","server":"65535","farm":66,"title":"1973 - Israel - In Jerusalem - 32 - der Felsendom auf dem Tempelberg","ispublic":1,"isfriend":0,"isfamily":0},{"id":"51595499428","owner":"33589304@N02","secret":"9d334a4f21","server":"65535","farm":66,"title":"1973 - Israel - In Jerusalem - der Felsendom auf dem Tempelberg","ispublic":1,"isfriend":0,"isfamily":0},{"id":"51595499088","owner":"33589304@N02","secret":"96280259ff","server":"65535","farm":66,"title":"1973 - Israel - Jerusalem - n\u00e4he der Klagemauer","ispublic":1,"isfriend":0,"isfamily":0},{"id":"51591966637","owner":"44421492@N06","secret":"0f2b2bbc49","server":"65535","farm":66,"title":"NMH_160606_2136","ispublic":1,"isfriend":0,"isfamily":0},{"id":"51591937587","owner":"44421492@N06","secret":"03fd7c2a93","server":"65535","farm":66,"title":"NMH_160606_2133","ispublic":1,"isfriend":0,"isfamily":0},{"id":"51593651555","owner":"44421492@N06","secret":"fa645669fc","server":"65535","farm":66,"title":"NMH_160606_2062","ispublic":1,"isfriend":0,"isfamily":0},{"id":"51593644005","owner":"44421492@N06","secret":"3110e433d5","server":"65535","farm":66,"title":"NMH_160606_2051","ispublic":1,"isfriend":0,"isfamily":0},{"id":"51592967473","owner":"44421492@N06","secret":"4203ee42bb","server":"65535","farm":66,"title":"NMH_160606_2048","ispublic":1,"isfriend":0,"isfamily":0},{"id":"51592736766","owner":"44421492@N06","secret":"1ce833fca3","server":"65535","farm":66,"title":"NMH_160606_2033","ispublic":1,"isfriend":0,"isfamily":0},{"id":"51592733151","owner":"44421492@N06","secret":"959e79ebec","server":"65535","farm":66,"title":"NMH_160606_2021","ispublic":1,"isfriend":0,"isfamily":0},{"id":"51593621660","owner":"44421492@N06","secret":"144b42c1e6","server":"65535","farm":66,"title":"NMH_160606_2004","ispublic":1,"isfriend":0,"isfamily":0},{"id":"51592944198","owner":"44421492@N06","secret":"9ae9a2e5fa","server":"65535","farm":66,"title":"NMH_160606_2003","ispublic":1,"isfriend":0,"isfamily":0},{"id":"51592719451","owner":"44421492@N06","secret":"421e922a27","server":"65535","farm":66,"title":"NMH_160606_2001","ispublic":1,"isfriend":0,"isfamily":0},{"id":"51593611505","owner":"44421492@N06","secret":"441f21a2ca","server":"65535","farm":66,"title":"NMH_160606_1993","ispublic":1,"isfriend":0,"isfamily":0},{"id":"51592931368","owner":"44421492@N06","secret":"b9fff459dc","server":"65535","farm":66,"title":"NMH_160606_1987","ispublic":1,"isfriend":0,"isfamily":0},{"id":"51592707706","owner":"44421492@N06","secret":"db6ea45d6e","server":"65535","farm":66,"title":"NMH_160606_1983","ispublic":1,"isfriend":0,"isfamily":0},{"id":"51593600050","owner":"44421492@N06","secret":"c55e7a34bc","server":"65535","farm":66,"title":"NMH_160606_1974","ispublic":1,"isfriend":0,"isfamily":0},{"id":"51592701911","owner":"44421492@N06","secret":"f22a3e8004","server":"65535","farm":66,"title":"NMH_160606_1971","ispublic":1,"isfriend":0,"isfamily":0},{"id":"51593593855","owner":"44421492@N06","secret":"7651da08ae","server":"65535","farm":66,"title":"NMH_160606_1957","ispublic":1,"isfriend":0,"isfamily":0},{"id":"51592915328","owner":"44421492@N06","secret":"51541e208d","server":"65535","farm":66,"title":"NMH_160606_1931","ispublic":1,"isfriend":0,"isfamily":0},{"id":"51592912413","owner":"44421492@N06","secret":"ea1ca60642","server":"65535","farm":66,"title":"NMH_160606_1922","ispublic":1,"isfriend":0,"isfamily":0},{"id":"51593348579","owner":"44421492@N06","secret":"0c60618a86","server":"65535","farm":66,"title":"NMH_160606_1847","ispublic":1,"isfriend":0,"isfamily":0},{"id":"51590244974","owner":"129967944@N07","secret":"898b4e1c17","server":"65535","farm":66,"title":"DP1M0524","ispublic":1,"isfriend":0,"isfamily":0},{"id":"51611752310","owner":"162691461@N05","secret":"25175ed928","server":"65535","farm":66,"title":"Jerusalem","ispublic":1,"isfriend":0,"isfamily":0},{"id":"51610858476","owner":"162691461@N05","secret":"dcc3f43b31","server":"65535","farm":66,"title":"Jerusalem","ispublic":1,"isfriend":0,"isfamily":0},{"id":"51611088163","owner":"162691461@N05","secret":"3b3c74da33","server":"65535","farm":66,"title":"Jerusalem","ispublic":1,"isfriend":0,"isfamily":0},{"id":"51611087023","owner":"162691461@N05","secret":"68f4e93f78","server":"65535","farm":66,"title":"Jerusalem","ispublic":1,"isfriend":0,"isfamily":0},{"id":"51610039577","owner":"162691461@N05","secret":"475daff316","server":"65535","farm":66,"title":"Jerusalem","ispublic":1,"isfriend":0,"isfamily":0},{"id":"51610038507","owner":"162691461@N05","secret":"ae5aaabf53","server":"65535","farm":66,"title":"Jerusalem","ispublic":1,"isfriend":0,"isfamily":0},{"id":"51611515294","owner":"162691461@N05","secret":"205a40108a","server":"65535","farm":66,"title":"Jerusalem","ispublic":1,"isfriend":0,"isfamily":0},{"id":"51610851011","owner":"162691461@N05","secret":"06aa43a3d5","server":"65535","farm":66,"title":"Jerusalem","ispublic":1,"isfriend":0,"isfamily":0},{"id":"51610849571","owner":"162691461@N05","secret":"31f8d5f647","server":"65535","farm":66,"title":"Jerusalem","ispublic":1,"isfriend":0,"isfamily":0},{"id":"51610848646","owner":"162691461@N05","secret":"ab5de59f36","server":"65535","farm":66,"title":"Jerusalem","ispublic":1,"isfriend":0,"isfamily":0},{"id":"51603835509","owner":"193824852@N03","secret":"72fc7e08c7","server":"65535","farm":66,"title":"Worshippers at the Wailing Wall, Jerusalem 1991","ispublic":1,"isfriend":0,"isfamily":0},{"id":"51601587571","owner":"104437599@N08","secret":"822cfc023c","server":"65535","farm":66,"title":"Palestine Pavilion","ispublic":1,"isfriend":0,"isfamily":0},{"id":"51602472360","owner":"104437599@N08","secret":"54cf8cf354","server":"65535","farm":66,"title":"Palestine Pavilion","ispublic":1,"isfriend":0,"isfamily":0},{"id":"51601587321","owner":"104437599@N08","secret":"8d4236ef53","server":"65535","farm":66,"title":"Palestine Pavilion","ispublic":1,"isfriend":0,"isfamily":0},{"id":"51600762037","owner":"104437599@N08","secret":"f3211863e0","server":"65535","farm":66,"title":"Palestine Pavilion","ispublic":1,"isfriend":0,"isfamily":0},{"id":"51601587191","owner":"104437599@N08","secret":"4246826c2b","server":"65535","farm":66,"title":"Palestine Pavilion","ispublic":1,"isfriend":0,"isfamily":0}]},"stat":"ok"}